<svg xmlns="http://www.w3.org/2000/svg" width="7.992" height="16.659" viewBox="0 0 7.992 16.659">
    <g id="prefix__Group_892" data-name="Group 892" transform="translate(-423 -128)">
        <path id="prefix__Path_577" d="M1180.632 419.55a1.471 1.471 0 0 1-1.125-.567 2.471 2.471 0 0 1-.059-2.92l3.653-4.857-3.649-4.824a2.463 2.463 0 0 1 .052-2.919 1.4 1.4 0 0 1 2.308.066l4.725 6.245a2.475 2.475 0 0 1 0 2.849l-4.725 6.285a1.49 1.49 0 0 1-1.184.642zm0 0" data-name="Path 577" transform="translate(-755.999 -274.891)" style="fill:#0fa8a8"/>
    </g>
</svg>
