<svg xmlns="http://www.w3.org/2000/svg" width="15.251" height="9.25" viewBox="0 0 15.251 9.25">
    <defs>
        <style>
            .cls-1{fill:#ff8560}
        </style>
    </defs>
    <g id="arrow" transform="translate(-1054.999 -389.891)">
        <path id="Path_58" d="M1180.89 418.141a1.89 1.89 0 0 1-1.37-3.193l4.228-4.447-4.223-4.416a1.89 1.89 0 1 1 2.731-2.612l5.469 5.717a1.89 1.89 0 0 1 .005 2.609l-5.469 5.754a1.888 1.888 0 0 1-1.371.587zm0 0" class="cls-1" data-name="Path 58" transform="rotate(90 1131.124 342.016)"/>
    </g>
</svg>
