<svg xmlns="http://www.w3.org/2000/svg" width="20" height="20" viewBox="0 0 20 20">
    <defs>
        <style>
            .cls-1{fill:#aa8170}.cls-2{fill:#fff}
        </style>
    </defs>
    <g id="Group_74" data-name="Group 74" transform="translate(-1373.585 -113.283)">
        <circle id="Ellipse_37" cx="10" cy="10" r="10" class="cls-1" data-name="Ellipse 37" transform="translate(1373.585 113.283)"/>
        <path id="Path_171" d="M1230.7 413.124l-6.11 7.238-3.448-3.492-1.213 1.356 4.759 4.82 7.32-8.671z" class="cls-2" data-name="Path 171" transform="translate(157.485 -294.046)"/>
    </g>
</svg>
