<svg xmlns="http://www.w3.org/2000/svg" width="36" height="36" viewBox="0 0 36 36">
    <defs>
        <style>
            .prefix__cls-2{fill:#fff}
        </style>
    </defs>
    <g id="prefix__arrow" transform="translate(-1162.999 -392.891)">
        <path id="prefix__Path_57" d="M18 0A18 18 0 110 18 18 18 0 0118 0z" data-name="Path 57" transform="translate(1162.999 392.891)" style="fill:#0fa8a8"/>
        <g id="prefix__Group_720" data-name="Group 720" transform="translate(-285.312 391.891)">
            <rect id="prefix__Rectangle_243" width="10.48" height="2.994" class="prefix__cls-2" data-name="Rectangle 243" rx="1.497" transform="rotate(45 709.075 1770.452)"/>
            <rect id="prefix__Rectangle_244" width="17.966" height="2.994" class="prefix__cls-2" data-name="Rectangle 244" rx="1.497" transform="rotate(-45 761.297 -1753.419)"/>
        </g>
    </g>
</svg>
