<svg xmlns="http://www.w3.org/2000/svg" width="29.003" height="28.997" viewBox="0 0 29.003 28.997">
    <defs>
        <style>
            .cls-1{fill:#fff;stroke:#fff}
        </style>
    </defs>
    <path id="Path_72" d="M877.947 199.382a6.175 6.175 0 0 0-8.74 0L853.182 215.4a.8.8 0 0 0-.227.459l-1.187 8.794a.8.8 0 0 0 .227.674.815.815 0 0 0 .567.239.641.641 0 0 0 .107-.006l8.714-1.14a.805.805 0 0 0 .37-.149.765.765 0 0 0 .169-.131l16.024-16.019a6.172 6.172 0 0 0 0-8.74zm-8.43 1.969l2.69 2.691-14.622 14.622-2.691-2.69zm-15.183 16.335l5.332 5.332-6.161.8zm7.028 4.749l-2.632-2.635 14.622-14.623 2.631 2.631zm15.744-15.774l-6.437-6.437a4.573 4.573 0 0 1 6.437 6.437z" class="cls-1" data-name="Path 72" transform="translate(-851.258 -197.07)"/>
</svg>
