<svg xmlns="http://www.w3.org/2000/svg" width="38.306" height="37.92" viewBox="0 0 38.306 37.92">
    <defs>
        <style>
            .cls-1{fill:#fff}.cls-2,.cls-4{fill:#9f9f9f}.cls-3,.cls-4{stroke:none}
        </style>
    </defs>
    <g id="e_tag" transform="translate(-261.922 -11.5)">
        <g id="Path_131" class="cls-1" data-name="Path 131">
            <path d="M4.5 8C2.57 8 1 6.43 1 4.5S2.57 1 4.5 1 8 2.57 8 4.5 6.43 8 4.5 8z" class="cls-3" transform="translate(282.5 21.538)"/>
            <path d="M4.5 2A2.503 2.503 0 0 0 2 4.5C2 5.878 3.122 7 4.5 7S7 5.878 7 4.5 5.878 2 4.5 2m0-2a4.5 4.5 0 1 1 0 9 4.5 4.5 0 0 1 0-9z" class="cls-4" transform="translate(282.5 21.538)"/>
        </g>
        <path id="Path_86" d="M1196.882 347.622a1.556 1.556 0 0 0-.428.948 1.328 1.328 0 0 0 .394.98l16.167 16.016a1.46 1.46 0 0 0 .989.393 1.4 1.4 0 0 0 .989-.393l19.366-19.187a1.377 1.377 0 0 0 .4-1.111l-1.649-14.381a1.364 1.364 0 0 0-1.221-1.21l-14.516-1.634a1.446 1.446 0 0 0-1.121.393l-19.366 19.187zm21.873 10.327L1204.57 343.9l13.162-13.042 12.736 1.438 1.451 12.618zm-18.935-9.349l2.77-2.745 14.185 14.054-2.775 2.747zm14.18 14.056" class="cls-2" data-name="Path 86" transform="translate(-934.532 -316.538)"/>
    </g>
</svg>
