<svg xmlns="http://www.w3.org/2000/svg" width="30" height="30" viewBox="0 0 30 30">
    <defs>
        <style>
            .cls-1{fill:#fff}
        </style>
    </defs>
    <g id="Group_488" data-name="Group 488" transform="translate(-995 -225.89)">
        <path id="Path_471" d="M1110.116 231.432h11.2a.608.608 0 0 0 .606-.606v-4.936h-12.417v4.935a.608.608 0 0 0 .608.606zm0 0" class="cls-1" data-name="Path 471" transform="translate(-105.717)"/>
        <path id="Path_472" d="M1024.531 233.436l-6.323-6.349v3.738a2.61 2.61 0 0 1-2.607 2.607h-11.2a2.61 2.61 0 0 1-2.607-2.607v-4.935h-4.039a2.753 2.753 0 0 0-2.755 2.752v24.5a2.753 2.753 0 0 0 2.753 2.752h24.495a2.753 2.753 0 0 0 2.752-2.752V234.57a1.6 1.6 0 0 0-.469-1.134zm-4.2 16.141a1.607 1.607 0 0 1-1.608 1.607h-17.453a1.607 1.607 0 0 1-1.606-1.607V241.2a1.606 1.606 0 0 1 1.606-1.606h17.453a1.607 1.607 0 0 1 1.608 1.606zm0 0" class="cls-1" data-name="Path 472"/>
        <path id="Path_473" d="M1102.315 438h-13.792a1 1 0 1 0 0 2h13.792a1 1 0 0 0 0-2zm0 0" class="cls-1" data-name="Path 473" transform="translate(-85.42 -195.822)"/>
        <path id="Path_474" d="M1124.374 490.1h-9.792a1 1 0 0 0 0 2h9.792a1 1 0 1 0 0-2zm0 0" class="cls-1" data-name="Path 474" transform="translate(-109.478 -243.926)"/>
    </g>
</svg>
