<svg xmlns="http://www.w3.org/2000/svg" width="23.499" height="18.464" viewBox="0 0 23.499 18.464">
    <defs>
        <style>
            .cls-1{fill:#e2e2e2}
        </style>
    </defs>
    <path id="Path_469" d="M34.449 68.516a.839.839 0 0 0-1.433.593v2.518h-5.875a.839.839 0 0 0 0 1.679h6.714a.839.839 0 0 0 .839-.839v-1.332l3.849 3.849-3.849 3.849V77.5a.839.839 0 0 0-.839-.839h-9.231v-2.516a.839.839 0 0 0-1.433-.593l-5.875 5.875a.839.839 0 0 0 0 1.187l5.875 5.875a.839.839 0 0 0 .593.246.827.827 0 0 0 .321-.064.839.839 0 0 0 .518-.775v-2.519H30.5a.839.839 0 0 0 0-1.679h-6.716a.839.839 0 0 0-.839.839v1.331L19.1 80.02l3.849-3.849V77.5a.839.839 0 0 0 .839.839h9.232v2.518a.839.839 0 0 0 1.433.593l5.875-5.875a.839.839 0 0 0 0-1.187z" class="cls-1" data-name="Path 469" transform="translate(-17.071 -68.27)"/>
</svg>
