<svg xmlns="http://www.w3.org/2000/svg" width="36" height="36" viewBox="0 0 36 36">
    <defs>
        <style>
            .prefix__cls-1{fill:#ffffff}
        </style>
    </defs>
    <g id="prefix__Group_745" data-name="Group 745" transform="translate(7.275 5.671)">
        <g id="prefix__Group_709" data-name="Group 709">
            <circle id="prefix__Ellipse_74" cx="2.5" cy="2.5" r="2.5" class="prefix__cls-1" data-name="Ellipse 74" transform="translate(8.725 2.329)"/>
            <circle id="prefix__Ellipse_75" cx="2.5" cy="2.5" r="2.5" class="prefix__cls-1" data-name="Ellipse 75" transform="translate(8.725 10.329)"/>
            <circle id="prefix__Ellipse_76" cx="2.5" cy="2.5" r="2.5" class="prefix__cls-1" data-name="Ellipse 76" transform="translate(8.725 18.329)"/>
        </g>
    </g>
</svg>
