<svg xmlns="http://www.w3.org/2000/svg" width="26.896" height="30" viewBox="0 0 26.896 30">
    <defs>
        <style>
            .cls-1{fill:#63c8ed}
        </style>
    </defs>
    <g id="Group_543" data-name="Group 543" transform="translate(-1466 -227.316)">
        <g id="Group_478" data-name="Group 478" transform="translate(722.652 71.927)">
            <path id="Path_442" d="M939.179 162.55a8.183 8.183 0 0 0-12.128-6.111 4.323 4.323 0 0 0-2.8-1.049h-.014a4.32 4.32 0 0 0-4.308 4.308v.181a9.172 9.172 0 0 0-4.867 8.087v5.334a8.3 8.3 0 0 1-2.213 5.055 1.878 1.878 0 0 0-.339 2.047 1.837 1.837 0 0 0 1.711 1.112h5.307a4.795 4.795 0 0 0 9.412 0h5.321a1.847 1.847 0 0 0 1.695-1.108 1.881 1.881 0 0 0-.339-2.053 8.367 8.367 0 0 1-2.211-5.054v-1.869a8.209 8.209 0 0 0 5.771-8.88zm-12.1 18.963a2.985 2.985 0 0 1-5.69 0zM924.4 158.8h-.161a9.1 9.1 0 0 0-2.433.335 2.515 2.515 0 0 1 2.439-1.931 2.446 2.446 0 0 1 1.268.351 8.267 8.267 0 0 0-1.113 1.245zm-.034 9.584a8.186 8.186 0 0 0 7.237 3.384V173.342a10.006 10.006 0 0 0 2.687 6.235.087.087 0 0 1 .012.1.052.052 0 0 1-.053.027h-20.04c-.022 0-.034-.016-.042-.034a.082.082 0 0 1 .015-.089 10 10 0 0 0 2.69-6.242V167.965a7.369 7.369 0 0 1 6.519-7.308 8.093 8.093 0 0 0 .97 7.723zm6.682 1.6a6.39 6.39 0 1 1 6.39-6.391 6.4 6.4 0 0 1-6.394 6.385z" class="cls-1" data-name="Path 442" transform="translate(-169)"/>
            <path id="Path_443" d="M1145.356 198.521h.235a.448.448 0 0 0 .447-.4c.524-5.134.591-5.942.591-6.072a1.293 1.293 0 0 0-.281-.853l-.018-.02a1.159 1.159 0 0 0-.88-.352 1.072 1.072 0 0 0-.863.373 1.292 1.292 0 0 0-.281.853c0 .132.068.941.6 6.073a.448.448 0 0 0 .45.398z" class="cls-1" data-name="Path 443" transform="translate(-383.333 -32.738)"/>
            <path id="Path_444" d="M1144.448 299.062a1.239 1.239 0 0 0-.853.315l-.018.017a1.218 1.218 0 0 0-.355.894 1.186 1.186 0 0 0 .343.871 1.209 1.209 0 0 0 .883.367 1.173 1.173 0 0 0 .871-.367 1.189 1.189 0 0 0 .355-.871 1.205 1.205 0 0 0-.369-.9 1.169 1.169 0 0 0-.857-.326z" class="cls-1" data-name="Path 444" transform="translate(-382.332 -132.756)"/>
        </g>
    </g>
</svg>
