<svg xmlns="http://www.w3.org/2000/svg" width="39.243" height="30.25" viewBox="0 0 39.243 30.25">
    <defs>
        <style>
            .cls-1{fill:#b38ee6}
        </style>
    </defs>
    <g id="Group_479" data-name="Group 479" transform="translate(-971 -251.585)">
        <path id="Path_433" d="M1007.791 263.849h-16.352v-1.635h4.906a2.453 2.453 0 0 0 0-4.906h-8.994V252.4a.818.818 0 1 0-1.635 0v5.723a.818.818 0 0 0 .818.818h9.811a.817.817 0 1 1 0 1.635h-5.723a.818.818 0 0 0-.818.818v2.453h-16.351A2.456 2.456 0 0 0 971 266.3v13.081a2.455 2.455 0 0 0 2.453 2.452h34.338a2.455 2.455 0 0 0 2.453-2.452V266.3a2.456 2.456 0 0 0-2.453-2.451zm.818 15.534a.818.818 0 0 1-.818.817h-34.338a.819.819 0 0 1-.818-.817V266.3a.819.819 0 0 1 .818-.818h34.338a.819.819 0 0 1 .818.818z" class="cls-1" data-name="Path 433"/>
        <path id="Rectangle_118" d="M0 0h1.635v1.635H0z" class="cls-1" data-name="Rectangle 118" transform="translate(975.088 267.119)"/>
        <path id="Rectangle_119" d="M0 0h1.635v1.635H0z" class="cls-1" data-name="Rectangle 119" transform="translate(978.358 267.119)"/>
        <path id="Rectangle_120" d="M0 0h1.635v1.635H0z" class="cls-1" data-name="Rectangle 120" transform="translate(981.628 267.119)"/>
        <path id="Rectangle_121" d="M0 0h1.635v1.635H0z" class="cls-1" data-name="Rectangle 121" transform="translate(984.899 267.119)"/>
        <path id="Rectangle_122" d="M0 0h1.635v1.635H0z" class="cls-1" data-name="Rectangle 122" transform="translate(988.169 267.119)"/>
        <path id="Rectangle_123" d="M0 0h1.635v1.635H0z" class="cls-1" data-name="Rectangle 123" transform="translate(991.439 267.119)"/>
        <path id="Rectangle_124" d="M0 0h1.635v1.635H0z" class="cls-1" data-name="Rectangle 124" transform="translate(994.709 267.119)"/>
        <path id="Rectangle_125" d="M0 0h1.635v1.635H0z" class="cls-1" data-name="Rectangle 125" transform="translate(997.979 267.119)"/>
        <path id="Rectangle_126" d="M0 0h1.635v1.635H0z" class="cls-1" data-name="Rectangle 126" transform="translate(1001.25 267.119)"/>
        <path id="Rectangle_127" d="M0 0h1.635v1.635H0z" class="cls-1" data-name="Rectangle 127" transform="translate(1004.52 267.119)"/>
        <path id="Rectangle_128" d="M0 0h1.635v1.635H0z" class="cls-1" data-name="Rectangle 128" transform="translate(975.088 270.389)"/>
        <path id="Rectangle_129" d="M0 0h1.635v1.635H0z" class="cls-1" data-name="Rectangle 129" transform="translate(978.358 270.389)"/>
        <path id="Rectangle_130" d="M0 0h1.635v1.635H0z" class="cls-1" data-name="Rectangle 130" transform="translate(981.628 270.389)"/>
        <path id="Rectangle_131" d="M0 0h1.635v1.635H0z" class="cls-1" data-name="Rectangle 131" transform="translate(984.899 270.389)"/>
        <path id="Rectangle_132" d="M0 0h1.635v1.635H0z" class="cls-1" data-name="Rectangle 132" transform="translate(988.169 270.389)"/>
        <path id="Rectangle_133" d="M0 0h1.635v1.635H0z" class="cls-1" data-name="Rectangle 133" transform="translate(991.439 270.389)"/>
        <path id="Rectangle_134" d="M0 0h1.635v1.635H0z" class="cls-1" data-name="Rectangle 134" transform="translate(994.709 270.389)"/>
        <path id="Rectangle_135" d="M0 0h1.635v1.635H0z" class="cls-1" data-name="Rectangle 135" transform="translate(997.979 270.389)"/>
        <path id="Rectangle_136" d="M0 0h1.635v1.635H0z" class="cls-1" data-name="Rectangle 136" transform="translate(1001.25 270.389)"/>
        <path id="Rectangle_137" d="M0 0h1.635v1.635H0z" class="cls-1" data-name="Rectangle 137" transform="translate(1004.52 270.389)"/>
        <path id="Rectangle_138" d="M0 0h1.635v1.635H0z" class="cls-1" data-name="Rectangle 138" transform="translate(975.088 273.659)"/>
        <path id="Rectangle_139" d="M0 0h1.635v1.635H0z" class="cls-1" data-name="Rectangle 139" transform="translate(978.358 273.659)"/>
        <path id="Rectangle_140" d="M0 0h1.635v1.635H0z" class="cls-1" data-name="Rectangle 140" transform="translate(981.628 273.659)"/>
        <path id="Rectangle_141" d="M0 0h1.635v1.635H0z" class="cls-1" data-name="Rectangle 141" transform="translate(984.899 273.659)"/>
        <path id="Rectangle_142" d="M0 0h1.635v1.635H0z" class="cls-1" data-name="Rectangle 142" transform="translate(988.169 273.659)"/>
        <path id="Rectangle_143" d="M0 0h1.635v1.635H0z" class="cls-1" data-name="Rectangle 143" transform="translate(991.439 273.659)"/>
        <path id="Rectangle_144" d="M0 0h1.635v1.635H0z" class="cls-1" data-name="Rectangle 144" transform="translate(994.709 273.659)"/>
        <path id="Rectangle_145" d="M0 0h1.635v1.635H0z" class="cls-1" data-name="Rectangle 145" transform="translate(997.979 273.659)"/>
        <path id="Rectangle_146" d="M0 0h1.635v1.635H0z" class="cls-1" data-name="Rectangle 146" transform="translate(1001.25 273.659)"/>
        <path id="Rectangle_147" d="M0 0h1.635v1.635H0z" class="cls-1" data-name="Rectangle 147" transform="translate(1004.52 273.659)"/>
        <path id="Rectangle_148" d="M0 0h1.635v1.635H0z" class="cls-1" data-name="Rectangle 148" transform="translate(975.088 276.93)"/>
        <path id="Rectangle_149" d="M0 0h1.635v1.635H0z" class="cls-1" data-name="Rectangle 149" transform="translate(978.358 276.93)"/>
        <path id="Rectangle_150" d="M0 0h1.635v1.635H0z" class="cls-1" data-name="Rectangle 150" transform="translate(981.628 276.93)"/>
        <path id="Rectangle_151" d="M0 0h14.716v1.635H0z" class="cls-1" data-name="Rectangle 151" transform="translate(984.899 276.93)"/>
        <path id="Rectangle_152" d="M0 0h1.635v1.635H0z" class="cls-1" data-name="Rectangle 152" transform="translate(1001.25 276.93)"/>
        <path id="Rectangle_153" d="M0 0h1.635v1.635H0z" class="cls-1" data-name="Rectangle 153" transform="translate(1004.52 276.93)"/>
    </g>
</svg>
