<svg xmlns="http://www.w3.org/2000/svg" width="75" height="75" viewBox="0 0 75 75">
    <defs>
        <style>
            .cls-1{fill:#fff}.cls-2{fill:#c7c7c7}
        </style>
    </defs>
    <g id="Group_21" data-name="Group 21" transform="translate(-1063 -294.654)">
        <path id="Path_416" d="M37.5 0A37.5 37.5 0 1 1 0 37.5 37.5 37.5 0 0 1 37.5 0z" class="cls-1" data-name="Path 416" transform="translate(1063 294.654)"/>
        <circle id="Ellipse_54" cx="32.5" cy="32.5" r="32.5" class="cls-2" data-name="Ellipse 54" transform="translate(1068 299.654)"/>
        <g id="Group_323" data-name="Group 323" transform="translate(328 98.898)">
            <path id="Path_417" d="M1020.672 473.327h-2.26v2.3h-2.212v2.26h2.209v2.3h2.26v-2.3h2.309v-2.26h-2.309zm0 0" class="cls-1" data-name="Path 417" transform="translate(-234.084 -233.395)"/>
            <path id="Path_418" d="M786.588 234.424v-10.7l-9.834-9.834H756v37.339h25a9.037 9.037 0 1 0 5.584-16.805zm-9.172-16.677l5.24 5.24h-5.24zm-19.156-1.6h16.9v9.1h9.172v9.19a9.033 9.033 0 0 0-5.93 14.534h-20.143zm27.249 34.026a6.778 6.778 0 1 1 6.778-6.778 6.786 6.786 0 0 1-6.778 6.778zm0 0" class="cls-1" data-name="Path 418"/>
            <path id="Rectangle_107" d="M0 0h19.305v2.259H0z" class="cls-1" data-name="Rectangle 107" transform="translate(761.634 228.686)"/>
            <path id="Rectangle_108" d="M0 0h9.037v2.26H0z" class="cls-1" data-name="Rectangle 108" transform="translate(761.634 224.167)"/>
            <path id="Rectangle_109" d="M0 0h9.037v2.259H0z" class="cls-1" data-name="Rectangle 109" transform="translate(761.634 237.723)"/>
            <path id="Rectangle_110" d="M0 0h13.556v2.259H0z" class="cls-1" data-name="Rectangle 110" transform="translate(761.634 233.204)"/>
        </g>
    </g>
</svg>
