<svg xmlns="http://www.w3.org/2000/svg" id="prefix__add_icon" width="40" height="40" viewBox="0 0 40 40">
    <defs>
        <style>
            .prefix__cls-2{fill:#fff}
        </style>
    </defs>
    <circle id="prefix__Ellipse_7" cx="20" cy="20" r="20" data-name="Ellipse 7" style="fill:#ff8560"/>
    <rect id="prefix__Rectangle_18" width="19.487" height="5.128" class="prefix__cls-2" data-name="Rectangle 18" rx="2.564" transform="translate(10.256 17.436)"/>
    <rect id="prefix__Rectangle_19" width="19.487" height="5.128" class="prefix__cls-2" data-name="Rectangle 19" rx="2.564" transform="rotate(90 6.154 16.41)"/>
</svg>
