<svg xmlns="http://www.w3.org/2000/svg" width="39" height="38.654" viewBox="0 0 39 38.654">
    <defs>
        <style>
            .prefix__cls-1{fill:#9f9f9f}
        </style>
    </defs>
    <g id="prefix__Group_896" data-name="Group 896" transform="translate(-2884.742 -3208.216)">
        <g id="prefix__Group_893" data-name="Group 893" transform="translate(2884.742 3208.216)">
            <path id="prefix__Path_678" d="M2980.323 3467.245l2.318-2.41-2.318-2.41z" class="prefix__cls-1" data-name="Path 678" transform="translate(-2973.998 -3445.604)"/>
            <path id="prefix__Path_679" d="M3143.068 3664.089h4.82l-2.41-2.317z" class="prefix__cls-1" data-name="Path 679" transform="translate(-3125.975 -3631.76)"/>
            <path id="prefix__Path_680" d="M2923.742 3225.378h-2.653a17.016 17.016 0 0 0-14.434-14.5v-2.663h-4.826v2.663a17.022 17.022 0 0 0-14.384 14.152h-2.7v4.825h2.626a17.018 17.018 0 0 0 14.461 14.7v2.317h4.826v-2.317a17.019 17.019 0 0 0 14.414-14.35h2.673zm-8.691 13.148a15.173 15.173 0 0 1-8.4 4.288v-2.266h-4.826v2.266a15.3 15.3 0 0 1-12.725-12.957h1.96v-4.825h-1.875a15.3 15.3 0 0 1 12.64-12.412v1.919h4.826v-1.919a15.3 15.3 0 0 1 12.7 12.758h-1.932v4.826h1.908a15.178 15.178 0 0 1-4.276 8.322z" class="prefix__cls-1" data-name="Path 680" transform="translate(-2884.742 -3208.217)"/>
            <path id="prefix__Path_681" d="M3345.848 3472.384v-4.82l-2.317 2.41z" class="prefix__cls-1" data-name="Path 681" transform="translate(-3313.173 -3450.402)"/>
            <path id="prefix__Path_682" d="M3147.793 3303.8h-4.819l2.41 2.317z" class="prefix__cls-1" data-name="Path 682" transform="translate(-3125.886 -3297.473)"/>
        </g>
        <g id="prefix__Group_894" data-name="Group 894" transform="translate(2895.139 3218.44)">
            <path id="prefix__Path_683" d="M3050.974 3362.728a9.1 9.1 0 1 0 9.1 9.1 9.1 9.1 0 0 0-9.1-9.1zm-.846 14.022l-5.428-5.256 1.753-1.752 3.718 3.632 5.513-5.6 1.837 1.752z" class="prefix__cls-1" data-name="Path 683" transform="translate(-3041.871 -3362.728)"/>
        </g>
    </g>
</svg>
